…
# 문자 기준
text %>%
unnest_tokens(input = value, output = word, token = "characters")
<!-- # A tibble: 40 x 1 -->
<!--    word  -->
<!--    <chr> -->
<!--  1 대    -->
<!--  2 한    -->
<!--  3 민    -->
<!--  4 국    -->
<!--  5 은    -->
<!--  6 민    -->
<!--  7 주    -->
<!--  8 공    -->
<!--  9 화    -->
<!-- 10 국    -->
<!-- # ... with 30 more rows -->

word_space <- moon %>%
unnest_tokens(input = value, output = word, token = "words")
word_space
<!-- # A tibble: 2,025 x 1 -->
<!--    word       -->
<!--    <chr>      -->
<!--  1 정권교체   -->
<!--  2 하겠습니다 -->
<!--  3 정치교체   -->
<!--  4 하겠습니다 -->
<!--  5 시대교체   -->
<!--  6 하겠습니다 -->
<!--  7 불비불명   -->
<!--  8 이라는     -->
<!--  9 고사가     -->
<!-- 10 있습니다   -->
<!-- # ... with 2,015 more rows -->
