# 단어 빈도 구하기
word_noun <- word_noun %>%
count(word, sort = T) %>%
filter(str_count(word) > 1)

word_noun
<!-- # A tibble: 704 x 2 -->
<!--    word       n -->
<!--    <chr>  <int> -->
<!--  1 국민      21 -->
<!--  2 일자리    21 -->
<!--  3 나라      19 -->
<!--  4 우리      17 -->
<!--  5 경제      15 -->
<!--  6 사회      14 -->
<!--  7 성장      13 -->
<!--  8 대통령    12 -->
<!--  9 정치      12 -->
<!-- 10 하게      12 -->
<!-- # ... with 694 more rows -->
…
